{
  "project_info": {
    "project_number": "714991141572",
    "firebase_url": "https://messageapp-55851.firebaseio.com",
    "project_id": "messageapp-55851",
    "storage_bucket": "messageapp-55851.appspot.com"
  },
  "client": [
    {
      "client_info": {
        "mobilesdk_app_id": "1:714991141572:android:a0938a50661d7a93",
        "android_client_info": {
          "package_name": "com.jonascrdev.messages"
        }
      },
      "oauth_client": [
        {
          "client_id": "714991141572-5eqhvpo1bq0tbnfk2nq3jht7srsaqieo.apps.googleusercontent.com",
          "client_type": 1,
          "android_info": {
            "package_name": "com.jonascrdev.messages",
            "certificate_hash": "b7af3c8dc6987e4a8958900a827fbe10197040fe"
          }
        },
        {
          "client_id": "714991141572-41aus3aloorcmi0bflldacq8gcm6bcp8.apps.googleusercontent.com",
          "client_type": 3
        }
      ],
      "api_key": [
        {
          "current_key": "AIzaSyABALqkgHHFph6ZZMqUfLEMCqFP4bQcrrg"
        }
      ],
      "services": {
        "appinvite_service": {
          "other_platform_oauth_client": [
            {
              "client_id": "714991141572-41aus3aloorcmi0bflldacq8gcm6bcp8.apps.googleusercontent.com",
              "client_type": 3
            }
          ]
        }
      }
    }
  ],
  "configuration_version": "1"
}